{
  "build": {
    "arduino": {
      "ldscript": "esp32_out.ld",
      "partitions": "boards/partition.csv"
    },
    "core": "esp32",
    "extra_flags": "-DARDUINO_ESP32_DEV",
    "f_cpu": "240000000L",
    "f_flash": "40000000L",
    "flash_mode": "dio",
    "mcu": "esp32",
    "variant": "esp32"
  },
  "connectivity": [
    "wifi",
    "bluetooth"
  ],
  "debug": {
    "openocd_board": "esp-wroom-32.cfg"
  },
  "frameworks": "arduino",
  "name": "INCO REV1.0 MOTHERBOARD",
  "upload": {
    "flash_size": "16MB",
    "maximum_ram_size": 327680,
    "maximum_size": 16777216,
    "require_upload_port": true,
    "speed": 921600
  },
  "url": "https://www.libertamed.co.id",
  "vendor": "Liberta Inovasi Medika"
}